{
	"Parameters" : {
	  "Environment": "upper",
		"AnsibleInstanceS3Policy": "arn:aws:iam::aws:policy/AmazonS3ReadOnlyAccess",
		"AnsibleInstanceEC2Policy": "arn:aws:iam::aws:policy/AmazonEC2FullAccess",
		"AMIId": "ami-062f7200baf2fa504",
		"InstanceSecurityGroup": "sg-071dacb73e54b8a06",
		"EC2KeyLogin": "Excidion-AWS-Hayford"
	}
}